Aspen Exudates: Exploratory Data Analysis
…
samples

## # A tibble: 60 × 31
##    sample_id cuvette_id date_id  year month fructose arabitol glucose mannitol
##    <chr>          <dbl>   <dbl> <dbl> <dbl>    <dbl>    <dbl>   <dbl>    <dbl>
##  1 S001               1  201910  2019    10    0       0.221    0.239    0    
##  2 S002               2  201910  2019    10    0       0        0.133    0.398
##  3 S003               3  201910  2019    10    0       0        0        0    
##  4 S004               4  201910  2019    10   NA      NA       NA       NA    
##  5 S005               5  201910  2019    10    0       0.483    0        1.14 
##  6 S006               6  201910  2019    10    0.329   0.416    0.935    0    
##  7 S007               7  201910  2019    10   NA      NA       NA       NA    
##  8 S008               8  201910  2019    10    0.133   0        0.234    0    
##  9 S009               9  201910  2019    10    0       0.0651   0.141    0    
## 10 S010              10  201910  2019    10    0       0        0        0.797
## # ℹ 50 more rows
## # ℹ 22 more variables: sucrose <dbl>, trehalose <dbl>, starch <dbl>,
## #   glycogen <dbl>, sample_flush_vol <dbl>, fine_root_mass <dbl>,
## #   root_area_0_1 <dbl>, root_area_1_2 <dbl>, root_area_2 <dbl>,
## #   root_length_0_1 <dbl>, root_length_1_2 <dbl>, root_length_2 <dbl>,
## #   root_examined <dbl>, long <dbl>, contact <dbl>,
## #   long_to_contact_ratio <dbl>, uncolonized <dbl>, …
…
Apply the min-max normalization transformation to the sugar column
values:

# normalize samples table
samples_norm_mm <- samples %>%
  mutate(across(fructose:glycogen, .fns = min_max_norm, .names = "{.col}_norm_mm")) %>%
  select(-fructose:-sample_flush_vol,-year,-month) %>%
  relocate(fructose_norm_mm:glycogen_norm_mm, .before = fine_root_mass)
samples_norm_mm

## # A tibble: 60 × 29
##    sample_id cuvette_id date       date_id fructose_norm_mm arabitol_norm_mm
##    <chr>          <dbl> <date>       <dbl>            <dbl>            <dbl>
##  1 S001               1 2019-10-01  201910           0                0.0648
##  2 S002               2 2019-10-01  201910           0                0     
##  3 S003               3 2019-10-01  201910           0                0     
##  4 S004               4 2019-10-01  201910          NA               NA     
##  5 S005               5 2019-10-01  201910           0                0.142 
##  6 S006               6 2019-10-01  201910           0.164            0.122 
##  7 S007               7 2019-10-01  201910          NA               NA     
##  8 S008               8 2019-10-01  201910           0.0663           0     
##  9 S009               9 2019-10-01  201910           0                0.0191
## 10 S010              10 2019-10-01  201910           0                0     
## # ℹ 50 more rows
## # ℹ 23 more variables: glucose_norm_mm <dbl>, mannitol_norm_mm <dbl>,
## #   sucrose_norm_mm <dbl>, trehalose_norm_mm <dbl>, starch_norm_mm <dbl>,
## #   glycogen_norm_mm <dbl>, fine_root_mass <dbl>, root_area_0_1 <dbl>,
## #   root_area_1_2 <dbl>, root_area_2 <dbl>, root_length_0_1 <dbl>,
## #   root_length_1_2 <dbl>, root_length_2 <dbl>, root_examined <dbl>,
## #   long <dbl>, contact <dbl>, long_to_contact_ratio <dbl>, …
…
4.1 Pivot Sugar Columns
into One Column to Allow Faceting

By combining all sugar observations into one column, faceting by
sugar type will be simpler for exploration. Summary statistics cannot be
performed on any of the non-sugar columns in pivot_samples but
will still be useful for EDA.

pivot_samples_norm_mm <- samples_norm_mm %>%
  pivot_longer(fructose_norm_mm:glycogen_norm_mm, names_to = "sugar_type", values_to = "sugar_conc")
pivot_samples_norm_mm

## # A tibble: 480 × 23
##    sample_id cuvette_id date       date_id fine_root_mass root_area_0_1
##    <chr>          <dbl> <date>       <dbl>          <dbl>         <dbl>
##  1 S001               1 2019-10-01  201910           24.4          10.6
##  2 S001               1 2019-10-01  201910           24.4          10.6
##  3 S001               1 2019-10-01  201910           24.4          10.6
##  4 S001               1 2019-10-01  201910           24.4          10.6
##  5 S001               1 2019-10-01  201910           24.4          10.6
##  6 S001               1 2019-10-01  201910           24.4          10.6
##  7 S001               1 2019-10-01  201910           24.4          10.6
##  8 S001               1 2019-10-01  201910           24.4          10.6
##  9 S002               2 2019-10-01  201910           38.4          14.7
## 10 S002               2 2019-10-01  201910           38.4          14.7
## # ℹ 470 more rows
## # ℹ 17 more variables: root_area_1_2 <dbl>, root_area_2 <dbl>,
## #   root_length_0_1 <dbl>, root_length_1_2 <dbl>, root_length_2 <dbl>,
## #   root_examined <dbl>, long <dbl>, contact <dbl>,
## #   long_to_contact_ratio <dbl>, uncolonized <dbl>, colonized_root_tips <dbl>,
## #   total_root_tips <dbl>, root_tip_density <dbl>, percent_colonization <dbl>,
## #   c_conc <dbl>, sugar_type <chr>, sugar_conc <dbl>
…
Pretty good fit. What are the residuals?

lm_glycogen_starch <- samples_norm_mm %>%
  add_residuals(mod_starch_glycogen) %>%
  select(date, starch_norm_mm, glycogen_norm_mm, resid)
lm_glycogen_starch

## # A tibble: 60 × 4
##    date       starch_norm_mm glycogen_norm_mm   resid
##    <date>              <dbl>            <dbl>   <dbl>
##  1 2019-10-01          0.820           0.816   0.0164
##  2 2019-10-01          0.439           0.443   0.0356
##  3 2019-10-01          0               0.0134  0.0583
##  4 2019-10-01         NA              NA      NA     
##  5 2019-10-01          0.596           0.606   0.0363
##  6 2019-10-01          0.857           0.803  -0.0349
##  7 2019-10-01         NA              NA      NA     
##  8 2019-10-01          0.671           0.662   0.0157
##  9 2019-10-01          1               1       0.0145
## 10 2019-10-01          0.580           0.590   0.0369
## # ℹ 50 more rows
…
pivot_samples_norm_mm %>%
  filter(sugar_type %in% c("arabitol_norm_mm","fructose_norm_mm","glucose_norm_mm"))

## # A tibble: 180 × 23
##    sample_id cuvette_id date       date_id fine_root_mass root_area_0_1
##    <chr>          <dbl> <date>       <dbl>          <dbl>         <dbl>
##  1 S001               1 2019-10-01  201910           24.4         10.6 
##  2 S001               1 2019-10-01  201910           24.4         10.6 
##  3 S001               1 2019-10-01  201910           24.4         10.6 
##  4 S002               2 2019-10-01  201910           38.4         14.7 
##  5 S002               2 2019-10-01  201910           38.4         14.7 
##  6 S002               2 2019-10-01  201910           38.4         14.7 
##  7 S003               3 2019-10-01  201910           19.5          5.80
##  8 S003               3 2019-10-01  201910           19.5          5.80
##  9 S003               3 2019-10-01  201910           19.5          5.80
## 10 S004               4 2019-10-01  201910           NA            6.64
## # ℹ 170 more rows
## # ℹ 17 more variables: root_area_1_2 <dbl>, root_area_2 <dbl>,
## #   root_length_0_1 <dbl>, root_length_1_2 <dbl>, root_length_2 <dbl>,
## #   root_examined <dbl>, long <dbl>, contact <dbl>,
## #   long_to_contact_ratio <dbl>, uncolonized <dbl>, colonized_root_tips <dbl>,
## #   total_root_tips <dbl>, root_tip_density <dbl>, percent_colonization <dbl>,
## #   c_conc <dbl>, sugar_type <chr>, sugar_conc <dbl>
…
Setting the models:

mod1_arab_fruc_gluc <- lm(arabitol_norm_mm ~ fructose_norm_mm + glucose_norm_mm, data = samples_norm_mm)

mod2_arab_fruc_gluc <- lm(arabitol_norm_mm ~ fructose_norm_mm * glucose_norm_mm, data = samples_norm_mm)

Producing a Data Grid for Visualizing the Model Predictions

grid <- samples_norm_mm %>%
  data_grid(fructose_norm_mm,glucose_norm_mm) %>%
  gather_predictions(mod1_arab_fruc_gluc, mod2_arab_fruc_gluc)
grid

## # A tibble: 1,480 × 4
##    model               fructose_norm_mm glucose_norm_mm   pred
##    <chr>                          <dbl>           <dbl>  <dbl>
##  1 mod1_arab_fruc_gluc                0         0       0.0888
##  2 mod1_arab_fruc_gluc                0         0.00391 0.0924
##  3 mod1_arab_fruc_gluc                0         0.00428 0.0927
##  4 mod1_arab_fruc_gluc                0         0.00953 0.0976
##  5 mod1_arab_fruc_gluc                0         0.0101  0.0981
##  6 mod1_arab_fruc_gluc                0         0.0133  0.101 
##  7 mod1_arab_fruc_gluc                0         0.0167  0.104 
##  8 mod1_arab_fruc_gluc                0         0.0171  0.105 
##  9 mod1_arab_fruc_gluc                0         0.0176  0.105 
## 10 mod1_arab_fruc_gluc                0         0.0196  0.107 
## # ℹ 1,470 more rows

Adding the residuals:

grid1 <- samples_norm_mm %>%
  gather_residuals(mod1_arab_fruc_gluc, mod2_arab_fruc_gluc) %>%
  select(model, date, fructose_norm_mm, glucose_norm_mm, arabitol_norm_mm, resid)
grid1

## # A tibble: 120 × 6
##    model    date       fructose_norm_mm glucose_norm_mm arabitol_norm_mm   resid
##    <chr>    <date>                <dbl>           <dbl>            <dbl>   <dbl>
##  1 mod1_ar… 2019-10-01           0              0.0171            0.0648 -0.0397
##  2 mod1_ar… 2019-10-01           0              0.00953           0      -0.0976
##  3 mod1_ar… 2019-10-01           0              0                 0      -0.0888
##  4 mod1_ar… 2019-10-01          NA             NA                NA      NA     
##  5 mod1_ar… 2019-10-01           0              0                 0.142   0.0528
##  6 mod1_ar… 2019-10-01           0.164          0.0668            0.122  -0.0458
##  7 mod1_ar… 2019-10-01          NA             NA                NA      NA     
##  8 mod1_ar… 2019-10-01           0.0663         0.0167            0      -0.111 
##  9 mod1_ar… 2019-10-01           0              0.0101            0.0191 -0.0790
## 10 mod1_ar… 2019-10-01           0              0                 0      -0.0888
## # ℹ 110 more rows
…
samples_sugars_select_rm_na$pred_exp = predict(glucose_arabitol_exp_mod)
samples_sugars_select_rm_na

## # A tibble: 57 × 9
##    fructose_norm_mm arabitol_norm_mm glucose_norm_mm mannitol_norm_mm
##               <dbl>            <dbl>           <dbl>            <dbl>
##  1           0                0.0648         0.0171            0     
##  2           0                0              0.00953           0.0919
##  3           0                0              0                 0     
##  4           0                0.142          0                 0.264 
##  5           0.164            0.122          0.0668            0     
##  6           0.0663           0              0.0167            0     
##  7           0                0.0191         0.0101            0     
##  8           0                0              0                 0.184 
##  9           0.160            0              0.0529            0     
## 10           0                0              0.0176            0.0669
## # ℹ 47 more rows
## # ℹ 5 more variables: sucrose_norm_mm <dbl>, trehalose_norm_mm <dbl>,
## #   starch_norm_mm <dbl>, glycogen_norm_mm <dbl>, pred_exp <dbl>
…
4.5.1.5 Pairwise with
sugar vs c_conc

samples_pairwise_sugars_cconc <- samples_norm_mm %>%
  select(fructose_norm_mm:glycogen_norm_mm) %>%
  na.omit()
#rename the columns for better graphing
samples_pairwise_sugars_cconc

## # A tibble: 57 × 8
##    fructose_norm_mm arabitol_norm_mm glucose_norm_mm mannitol_norm_mm
##               <dbl>            <dbl>           <dbl>            <dbl>
##  1           0                0.0648         0.0171            0     
##  2           0                0              0.00953           0.0919
##  3           0                0              0                 0     
##  4           0                0.142          0                 0.264 
##  5           0.164            0.122          0.0668            0     
##  6           0.0663           0              0.0167            0     
##  7           0                0.0191         0.0101            0     
##  8           0                0              0                 0.184 
##  9           0.160            0              0.0529            0     
## 10           0                0              0.0176            0.0669
## # ℹ 47 more rows
## # ℹ 4 more variables: sucrose_norm_mm <dbl>, trehalose_norm_mm <dbl>,
## #   starch_norm_mm <dbl>, glycogen_norm_mm <dbl>
…
###Boxplots of Controls vs Samples

## Samples table
samples_c_conc_mg <- samples %>%
  select(sample_id, sample_flush_vol, c_conc) %>%
  na.omit() %>%
  mutate("c_conc_mg" = sample_flush_vol * c_conc) %>%
  mutate("type" = "samples") %>%
  rename(id = sample_id, flush_vol = sample_flush_vol)
samples_c_conc_mg # n = 59

## # A tibble: 59 × 5
##    id    flush_vol c_conc c_conc_mg type   
##    <chr>     <dbl>  <dbl>     <dbl> <chr>  
##  1 S001     0.037    4.82     0.178 samples
##  2 S002     0.038   10.8      0.408 samples
##  3 S003     0.0375   6.04     0.226 samples
##  4 S004     0.0205   5.43     0.111 samples
##  5 S005     0.032    5.77     0.185 samples
##  6 S006     0.037    4.74     0.175 samples
##  7 S007     0.027    4.97     0.134 samples
##  8 S008     0.033    5.00     0.165 samples
##  9 S009     0.032    4.74     0.152 samples
## 10 S010     0.039    5.07     0.198 samples
## # ℹ 49 more rows
…
# Bind rows

c_conc_all <- bind_rows(controls_c_conc_mg, samples_c_conc_mg)
c_conc_all

## # A tibble: 75 × 5
##    id    flush_vol c_conc c_conc_mg type    
##    <chr>     <dbl>  <dbl>     <dbl> <chr>   
##  1 C012     0.04     3.82     0.153 controls
##  2 C015     0.033    4.33     0.143 controls
##  3 C013     0.035    4.47     0.156 controls
##  4 C001     0.034    4.59     0.156 controls
##  5 C008     0.0385   4.71     0.181 controls
##  6 C007     0.0305   5.22     0.159 controls
##  7 C006     0.029    5.31     0.154 controls
##  8 C009     0.028    5.79     0.162 controls
##  9 C010     0.03     5.95     0.178 controls
## 10 C011     0.031    5.96     0.185 controls
## # ℹ 65 more rows
…
